<svg id="accept" xmlns="http://www.w3.org/2000/svg" width="16.282" height="16.994" viewBox="0 0 16.282 16.994">
  <path id="Path_714" data-name="Path 714" d="M65.227,98.637H62.255a.5.5,0,0,0,0,1h2.971a.5.5,0,0,0,0-1Zm0,0" transform="translate(-59.708 -95.363)" fill="#00a605"/>
  <path id="Path_715" data-name="Path 715" d="M65.227,158.641H62.255a.5.5,0,1,0,0,1h2.971a.5.5,0,1,0,0-1Zm0,0" transform="translate(-59.708 -153.375)" fill="#00a605"/>
  <path id="Path_716" data-name="Path 716" d="M65.227,218.645H62.255a.5.5,0,1,0,0,1h2.971a.5.5,0,1,0,0-1Zm0,0" transform="translate(-59.708 -211.388)" fill="#00a605"/>
  <path id="Path_717" data-name="Path 717" d="M65.227,278.648H62.255a.5.5,0,0,0,0,1h2.971a.5.5,0,0,0,0-1Zm0,0" transform="translate(-59.708 -269.399)" fill="#00a605"/>
  <path id="Path_718" data-name="Path 718" d="M65.227,339.656H62.255a.5.5,0,1,0,0,1h2.971a.5.5,0,1,0,0-1Zm0,0" transform="translate(-59.708 -328.382)" fill="#00a605"/>
  <path id="Path_719" data-name="Path 719" d="M202.154,99.633h2.971a.5.5,0,1,0,0-1h-2.971a.5.5,0,0,0,0,1Zm0,0" transform="translate(-194.963 -95.363)" fill="#00a605"/>
  <path id="Path_720" data-name="Path 720" d="M202.154,159.637h2.971a.5.5,0,1,0,0-1h-2.971a.5.5,0,0,0,0,1Zm0,0" transform="translate(-194.963 -153.375)" fill="#00a605"/>
  <path id="Path_721" data-name="Path 721" d="M204.083,219.143a.5.5,0,0,0-.5-.5h-1.431a.5.5,0,1,0,0,1h1.431A.5.5,0,0,0,204.083,219.143Zm0,0" transform="translate(-194.963 -211.388)" fill="#00a605"/>
  <path id="Path_722" data-name="Path 722" d="M313,342.8a.5.5,0,0,0-.7.077l-1.282,1.6-.794-.575a.5.5,0,1,0-.584.806l1.178.853a.5.5,0,0,0,.68-.092l1.579-1.968A.5.5,0,0,0,313,342.8Zm0,0" transform="translate(-299.162 -331.313)" fill="#00a605"/>
  <path id="Path_723" data-name="Path 723" d="M15.095,9.955a4.106,4.106,0,0,0-2.385-1.2V2A2.007,2.007,0,0,0,10.705,0h-8.7A2.007,2.007,0,0,0,0,2V13.538a2.007,2.007,0,0,0,2.005,2.005H9a4.1,4.1,0,0,0,3.144,1.451,4.138,4.138,0,0,0,2.948-7.039ZM1,13.538V2A1.011,1.011,0,0,1,2.005,1h8.7A1.011,1.011,0,0,1,11.715,2V8.741a4.14,4.14,0,0,0-3.342,5.806H2.005A1.011,1.011,0,0,1,1,13.537ZM12.147,16a3.142,3.142,0,0,1,0-6.284H12.2A3.142,3.142,0,0,1,12.147,16Zm0,0" transform="translate(0 0.001)" fill="#00a605"/>
</svg>
