<svg id="index" xmlns="http://www.w3.org/2000/svg" width="10.509" height="10.29" viewBox="0 0 10.509 10.29">
  <path id="Path_695" data-name="Path 695" d="M9.742,0H.766A.74.74,0,0,0,0,.709V1.722a.74.74,0,0,0,.766.709H9.742a.74.74,0,0,0,.766-.709V.709A.74.74,0,0,0,9.742,0Z" transform="translate(0 0)" fill="#fff"/>
  <path id="Path_696" data-name="Path 696" d="M14.178,10H8.3a.3.3,0,0,0,0,.608h5.874a.3.3,0,1,0,0-.608Z" transform="translate(-3.973 -5.599)" fill="#fff"/>
  <path id="Path_697" data-name="Path 697" d="M14.178,13H8.3a.3.3,0,1,0,0,.608h5.874a.3.3,0,1,0,0-.608Z" transform="translate(-3.973 -7.279)" fill="#fff"/>
  <path id="Path_698" data-name="Path 698" d="M14.178,19H8.3a.3.3,0,1,0,0,.608h5.874a.3.3,0,1,0,0-.608Z" transform="translate(-3.973 -10.533)" fill="#fff"/>
  <path id="Path_699" data-name="Path 699" d="M14.178,22H8.3a.3.3,0,1,0,0,.608h5.874a.3.3,0,1,0,0-.608Z" transform="translate(-3.973 -12.318)" fill="#fff"/>
  <circle id="Ellipse_83" data-name="Ellipse 83" cx="1.286" cy="1.286" r="1.286" transform="translate(0.146 4.079)" fill="#fff"/>
  <circle id="Ellipse_84" data-name="Ellipse 84" cx="1.286" cy="1.286" r="1.286" transform="translate(0.146 7.658)" fill="#fff"/>
</svg>
