<svg id="index" xmlns="http://www.w3.org/2000/svg" width="24.097" height="24" viewBox="0 0 24.097 24">
  <path id="Path_695" data-name="Path 695" d="M22.34,0H1.757A1.759,1.759,0,0,0,0,1.757v2.51A1.759,1.759,0,0,0,1.757,6.024H22.34A1.759,1.759,0,0,0,24.1,4.267V1.757A1.759,1.759,0,0,0,22.34,0Z" fill="#fff"/>
  <path id="Path_696" data-name="Path 696" d="M23.312,10H8.753a.753.753,0,0,0,0,1.506H23.312a.753.753,0,0,0,0-1.506Z" transform="translate(0.032 0.04)" fill="#fff"/>
  <path id="Path_697" data-name="Path 697" d="M23.312,13H8.753a.753.753,0,1,0,0,1.506H23.312a.753.753,0,0,0,0-1.506Z" transform="translate(0.032 0.052)" fill="#fff"/>
  <path id="Path_698" data-name="Path 698" d="M23.312,19H8.753a.753.753,0,0,0,0,1.506H23.312a.753.753,0,0,0,0-1.506Z" transform="translate(0.032 0.077)" fill="#fff"/>
  <path id="Path_699" data-name="Path 699" d="M23.312,22H8.753a.753.753,0,1,0,0,1.506H23.312a.753.753,0,0,0,0-1.506Z" transform="translate(0.032 0.089)" fill="#fff"/>
  <circle id="Ellipse_83" data-name="Ellipse 83" cx="3" cy="3" r="3" transform="translate(0 9)" fill="#fff"/>
  <circle id="Ellipse_84" data-name="Ellipse 84" cx="3" cy="3" r="3" transform="translate(0 18)" fill="#fff"/>
</svg>
