<svg xmlns="http://www.w3.org/2000/svg" width="9" height="10" viewBox="0 0 9 10">
  <g id="instagram" transform="translate(1.165 1.458)">
    <rect id="Rectangle_128" data-name="Rectangle 128" width="7" height="8" rx="3.5" transform="translate(-0.165 -0.458)" stroke-width="2" stroke="#fff" stroke-linecap="round" stroke-linejoin="round" fill="none"/>
    <path id="Path_658" data-name="Path 658" d="M10.58,9.045A1.275,1.275,0,1,1,9.506,7.97,1.275,1.275,0,0,1,10.58,9.045Z" transform="translate(-5.839 -5.524)" fill="none" stroke="#fff" stroke-linecap="round" stroke-linejoin="round" stroke-width="2"/>
    <line id="Line_66" data-name="Line 66" x2="0.003" transform="translate(5.219 1.968)" fill="none" stroke="#fff" stroke-linecap="round" stroke-linejoin="round" stroke-width="2"/>
  </g>
</svg>
