<svg xmlns="http://www.w3.org/2000/svg" width="18" height="18" viewBox="0 0 18 18">
  <g id="instagram" transform="translate(-0.602 -0.602)">
    <rect id="Rectangle_128" data-name="Rectangle 128" width="16" height="16" rx="5" transform="translate(1.602 1.602)" stroke-width="2" stroke="#fff" stroke-linecap="round" stroke-linejoin="round" fill="none"/>
    <path id="Path_658" data-name="Path 658" d="M14.092,10.551A3.041,3.041,0,1,1,11.53,7.99,3.041,3.041,0,0,1,14.092,10.551Z" transform="translate(-1.449 -1.428)" fill="none" stroke="#fff" stroke-linecap="round" stroke-linejoin="round" stroke-width="2"/>
    <line id="Line_66" data-name="Line 66" x2="0.008" transform="translate(13.783 5.421)" fill="none" stroke="#fff" stroke-linecap="round" stroke-linejoin="round" stroke-width="2"/>
  </g>
</svg>
