<svg xmlns="http://www.w3.org/2000/svg" width="630.036" height="786.167" viewBox="0 0 630.036 786.167">
  <g id="Layer_2" data-name="Layer 2" transform="translate(3.023 1.49)">
    <g id="Слой_1" data-name="Слой 1" transform="translate(0 0)">
      <g id="_4" data-name="4">
        <g id="CHAIR" transform="translate(0 310.286)">
          <path id="Path_794" data-name="Path 794" d="M736.98,1127.953H852.736a41.039,41.039,0,0,0,41.038-41.039V901.509a21.754,21.754,0,0,0-21.755-21.755H706.385A21.755,21.755,0,0,1,684.63,858V819.64" transform="translate(-664.138 -656.562)" fill="none" stroke="#d8baa3" stroke-miterlimit="10" stroke-width="6"/>
          <path id="Path_795" data-name="Path 795" d="M875.63,1171.739h63.684a41.039,41.039,0,0,0,41.039-41.039V945.971a22.431,22.431,0,0,0-22.431-22.432" transform="translate(-861.225 -700.348)" fill="none" stroke="#d8baa3" stroke-miterlimit="10" stroke-width="6"/>
          <path id="Path_796" data-name="Path 796" d="M585.407,537.78a16.675,16.675,0,0,0-16.53,18.8l16.3,126.055a90.524,90.524,0,0,0,89.749,78.912H856.17a9.257,9.257,0,0,0,9.257-9.257v-.116a9.315,9.315,0,0,0-7.869-9.165c-38.863-6.364-98.046-24.075-104.023-77.72l-14.6-112.973a16.669,16.669,0,0,0-16.53-14.528Z" transform="translate(-568.739 -537.78)" fill="#fff" stroke="#d8baa3" stroke-miterlimit="10" stroke-width="6"/>
          <path id="Path_797" data-name="Path 797" d="M568.888,556.584l16.3,126.055a90.524,90.524,0,0,0,89.749,78.912h181.24a9.257,9.257,0,0,0,9.257-9.257v-.116a9.166,9.166,0,0,0-1.013-4.195,8.887,8.887,0,0,1-7.892,4.785H681.3a86.97,86.97,0,0,1-86.242-75.786L579.406,555.843a16.009,16.009,0,0,1,15.882-18.063h-9.871a16.669,16.669,0,0,0-16.53,18.8Z" transform="translate(-568.75 -537.78)" fill="#f0e1d4" stroke="#d8baa3" stroke-miterlimit="10" stroke-width="6"/>
          <line id="Line_88" data-name="Line 88" x1="110.508" transform="translate(119.128 401.128)" fill="none" stroke="#d8baa3" stroke-miterlimit="10" stroke-width="6"/>
        </g>
        <g id="MAN" transform="translate(30.185)">
          <g id="LEGS" transform="translate(68.788 393.15)">
            <g id="SHOES" transform="translate(79.025 329.61)">
              <path id="Path_798" data-name="Path 798" d="M233.6,1258.061c0,4.009-8.505,20.429-8.222,27.5s30.566,6.411,45.557,6.5c17.82.116,55.723.116,55.723.116s3.674-16.339-15.841-18.6-43.11-22.889-43.11-22.889Z" transform="translate(-9.584 -1250.69)" fill="#722d54"/>
              <path id="Path_799" data-name="Path 799" d="M638.311,1272.79c-.92,3.344-11.1,18.046-11.1,32.186,0,0,18.387,12.729,24.879,13.562s59.97,0,59.97,0,1.284-17.519-22.067-20.551c-16.4-2.135-16.958-21.986-16.958-21.986Z" transform="translate(-627.208 -1260.003)" fill="#722d54"/>
              <path id="Path_800" data-name="Path 800" d="M665.35,1318.177s8.627-5.786,23.189-5.867" transform="translate(-625.746 -1276.658)" fill="none" stroke="#fff" stroke-linecap="round" stroke-miterlimit="10" stroke-width="5"/>
            </g>
            <g id="LEGS-2" data-name="LEGS" transform="translate(0)">
              <path id="Path_801" data-name="Path 801" d="M329.675,681s-26.036,46.917-15.836,80.3,70.442,27.841,70.442,27.841-19.238,74.4,8.9,231.1c0,0,22.2,11.884,60.1,3.963,0,0,5.659-72.976,31.943-234.2l47.773-.1S525.7,907.432,605.2,1016.876c0,0,25.116,6.526,52.836-11.572,0,0-35.033-159.468-40.992-257.323-1.736-28.819-48.919-54.207-155.9-66.93C461.14,681.046,364.477,686.873,329.675,681Z" transform="translate(-311.47 -681)" fill="#059700"/>
              <path id="Path_802" data-name="Path 802" d="M657.216,817.294c2-11.311,12.729-61.2-52.344-77.044" transform="translate(-482.286 -705.969)" fill="none" stroke="#fff" stroke-linecap="round" stroke-miterlimit="10" stroke-width="5"/>
              <path id="Path_803" data-name="Path 803" d="M782.689,837.15s-4.5,6.116-6.8,18.37" transform="translate(-704.826 -746.805)" fill="none" stroke="#fff" stroke-linecap="round" stroke-miterlimit="10" stroke-width="5"/>
            </g>
          </g>
          <g id="LEFT_HAND" data-name="LEFT HAND" transform="translate(247.701 239.879)">
            <path id="Path_804" data-name="Path 804" d="M199.808,530.018c25.064,37.168,136.909,21.315,166.017,16.484,2.465,2.569,5.786,5.271,9.147,5.959,6.885,1.394,27.714-.417,30.48,1.736,0,0,1.2-5.67-5.473-8.679-4.629-2.071-12.549-.4-9.639-3.379,1.979-2.025,6.85-1.585,17.207,1.637,3.894,1.215,18.127,8.065,21.818-1.244l-13.99-13.307c-9.3-5.138-14.169-10.964-34.5-6.289a17.872,17.872,0,0,1-8.2.087c-6.561-2.928-62.868-26.5-113.529-34.715L248.056,416.09c-18.439,16.848-50.84,31.382-53.067,32.366C194.989,448.548,189.168,514.269,199.808,530.018Z" transform="translate(-193.4 -416.09)" fill="#c36f0b"/>
            <path id="Path_805" data-name="Path 805" d="M504.46,464.635c11.172-4.964,38.973-18.636,55.445-39.661l-1.337-8.713c-18.439,16.842-50.84,31.376-53.067,32.36C505.5,448.62,504.917,455.169,504.46,464.635Z" transform="translate(-503.913 -416.162)" fill="#b65a18"/>
          </g>
          <g id="SHIRT" transform="translate(0 110.022)">
            <path id="Path_806" data-name="Path 806" d="M605.848,191.65c-3.923,3.923-29.4,23.218-82.87,54.832-9.628,5.693-37.162,32.221-35.484,88.476,0,0,20.372,19.579,71.883,30.5,0,0,11.514,83.217,12.353,105.053S703,482.658,708.6,474.291s27.7-83.894,27.98-120.269c0,0,54.872-24.092,64.39-46.767,0,0-22.952-53.177-38.354-62.695-18.341-11.334-67.856-26.615-97.878-51.251Z" transform="translate(-487.42 -191.65)" fill="#f0e1d4"/>
            <line id="Line_89" data-name="Line 89" y1="43.845" x2="3.836" transform="translate(73.599 128.867)" fill="none" stroke="#fff" stroke-linecap="round" stroke-miterlimit="10" stroke-width="6"/>
            <path id="Path_807" data-name="Path 807" d="M601.277,429.548a159.531,159.531,0,0,0-5.207-53.478" transform="translate(-351.015 -269.369)" fill="none" stroke="#fff" stroke-linecap="round" stroke-miterlimit="10" stroke-width="6"/>
            <g id="TIE" transform="translate(154.849 12.237)">
              <path id="Path_808" data-name="Path 808" d="M701.9,316.915c-8.447,49.133-29.768,119.187,5.873,140.595,0,0-8.216-19.053,11.352-63.788,27.407-62.654-2.071-137.083-8.939-152.878l10.056-13.192L705.581,212.8l-4.224.665-13.411,16.021,14.638,14.54C703.99,248.29,709.619,272.018,701.9,316.915Z" transform="translate(-687.836 -212.8)" fill="#ffb000"/>
              <path id="Path_809" data-name="Path 809" d="M713.684,222.131l16.322,16.3,1.342-1.736-16.114-16.1a1.1,1.1,0,0,0-1.55,1.556Z" transform="translate(-703.386 -215.963)" fill="#fff"/>
              <path id="Path_810" data-name="Path 810" d="M720.687,233.5,739.78,252.59c-.579-1.493-1.157-2.754-1.591-3.778l.393-.515-16.374-16.362a1.1,1.1,0,0,0-1.551,1.551Z" transform="translate(-715.868 -220.751)" fill="#fff"/>
              <path id="Path_811" data-name="Path 811" d="M708.48,267.78c.266.879.613,2.239.984,4.079h0l14.9,14.881q-.764-2.4-1.527-4.629h0Z" transform="translate(-693.559 -235.97)" fill="#fff"/>
              <path id="Path_812" data-name="Path 812" d="M700,293.86c.1,1.053.185,2.17.26,3.333l18.011,17.733c-.347-1.4-.706-2.777-1.065-4.125Z" transform="translate(-682.562 -246.96)" fill="#fff"/>
              <path id="Path_813" data-name="Path 813" d="M693.85,320.694l21.24,20.933c-.22-1.267-.457-2.523-.7-3.767h0l-20.522-20.25C693.867,318.628,693.867,319.647,693.85,320.694Z" transform="translate(-675.822 -256.969)" fill="#fff"/>
              <path id="Path_814" data-name="Path 814" d="M689.68,345.326l24.3,23.884q-.168-1.736-.376-3.443L689.883,342.45C689.825,343.393,689.755,344.348,689.68,345.326Z" transform="translate(-672.3 -267.437)" fill="#fff"/>
              <path id="Path_815" data-name="Path 815" d="M687.93,368.642l26.7,26.244c0-1.065-.064-2.118-.1-3.171L688.271,365.9C688.167,366.808,688.052,367.694,687.93,368.642Z" transform="translate(-671.939 -277.32)" fill="#fff"/>
              <path id="Path_816" data-name="Path 816" d="M688.13,392.419l28.518,27.668c.064-.972.11-1.938.15-2.893L688.57,389.81c-.087.579-.185,1.157-.283,1.736C688.24,391.812,688.182,392.113,688.13,392.419Z" transform="translate(-674.221 -287.396)" fill="#fff"/>
              <path id="Path_817" data-name="Path 817" d="M690.49,416.449,720,445.094c.145-.891.272-1.782.393-2.673L690.97,413.88C690.826,414.73,690.664,415.587,690.49,416.449Z" transform="translate(-679.179 -297.539)" fill="#fff"/>
              <path id="Path_818" data-name="Path 818" d="M695.04,440.922l29.444,28.564c.22-.816.422-1.637.619-2.453h0L695.555,438.37C695.364,439.215,695.2,440.071,695.04,440.922Z" transform="translate(-686.524 -307.86)" fill="#fff"/>
              <path id="Path_819" data-name="Path 819" d="M701.78,465.557l28.113,27.274c.284-.752.579-1.5.822-2.256L702.237,463C702.1,463.839,701.936,464.7,701.78,465.557Z" transform="translate(-696.035 -318.24)" fill="#fff"/>
              <path id="Path_820" data-name="Path 820" d="M710.84,492.144,736.3,516.855c.289-.723.578-1.446.891-2.187L711.239,489.5C711.112,490.368,710.979,491.265,710.84,492.144Z" transform="translate(-707.751 -329.407)" fill="#fff"/>
              <path id="Path_821" data-name="Path 821" d="M718.83,517.878l22.941,22.258c.243-.764.5-1.539.758-2.314l-23.4-22.692C719.021,516.044,718.923,516.964,718.83,517.878Z" transform="translate(-717.714 -340.208)" fill="#fff"/>
              <path id="Path_822" data-name="Path 822" d="M725.41,545.258l20.4,19.782c.179-.816.364-1.649.578-2.5l-20.869-20.25C725.468,543.279,725.433,544.28,725.41,545.258Z" transform="translate(-725.376 -351.654)" fill="#fff"/>
              <path id="Path_823" data-name="Path 823" d="M729.48,570.24c.1,1.157.22,2.28.353,3.4l17.641,17.109c.064-.9.139-1.834.243-2.812h0Z" transform="translate(-729.064 -363.433)" fill="#fff"/>
            </g>
            <path id="Path_824" data-name="Path 824" d="M778.7,219.5c-7.3,5.734-15.714,11.612-15.714,11.612L743.015,211.16,722.366,234.6c-33.737-2.939-49.486-21.888-49.486-21.888" transform="translate(-572.446 -199.872)" fill="none" stroke="#fff" stroke-linecap="round" stroke-miterlimit="10" stroke-width="6"/>
          </g>
          <g id="RIGHT_HAND" data-name="RIGHT HAND" transform="translate(9.783 260.493)">
            <g id="_Группа_" data-name="&lt;Группа&gt;" transform="translate(210.028 55.214)">
              <path id="Path_825" data-name="Path 825" d="M638.656,561.19h-4.137a10.675,10.675,0,0,0-10.669,10.669V588.21a10.669,10.669,0,0,0,10.669,10.669h4.108" transform="translate(-623.85 -553.067)" fill="none" stroke="#722d54" stroke-miterlimit="10" stroke-width="5"/>
              <rect id="Rectangle_294" data-name="Rectangle 294" width="42.225" height="54.624" rx="18.44" transform="translate(14.285)" fill="#fff" stroke="#722d54" stroke-miterlimit="10" stroke-width="5"/>
            </g>
            <path id="Path_826" data-name="Path 826" d="M700.06,451.72s-3.634,79.312,6.978,92.249C739.8,583.891,880,559.232,880,559.232l.55-20.742s-60.276-21.6-114.165-30.329L762.726,475.6S723.736,467.862,700.06,451.72Z" transform="translate(-699.46 -451.72)" fill="#c36f0b"/>
            <path id="Path_827" data-name="Path 827" d="M902.4,471.635c20.14,10.31,51.794,11.051,63.6,10.733L965.6,475.6s-38.99-7.741-62.666-23.884C902.933,451.72,902.556,459.982,902.4,471.635Z" transform="translate(-902.332 -451.72)" fill="#b65a18"/>
            <g id="_Группа_2" data-name="&lt;Группа&gt;" transform="translate(174.837 72.29)">
              <path id="Path_828" data-name="Path 828" d="M637.723,589.252s18.671-14.881,27.384-12.283,9.836,13.683,10.883,16.513,1.967,12.96,1.944,16.061-8.765,4.629-12.248,4.629-26.308.272-30.705-.937S637.723,589.252,637.723,589.252Z" transform="translate(-633.549 -576.664)" fill="#c36f0b"/>
              <path id="Path_829" data-name="Path 829" d="M630.541,614.4c3.471,0,9.737.22,11.664-2.1,3.819-4.629,2.644-12.81,1.823-15.934-.7-2.684-5.358-16.57-14.065-19.174,0,0,10.628,19.406.579,37.208" transform="translate(-598.405 -576.886)" fill="#b65a18"/>
            </g>
            <rect id="Rectangle_295" data-name="Rectangle 295" width="9.72" height="26.672" rx="4.86" transform="translate(170.87 83.09)" fill="#ffb000"/>
            <rect id="Rectangle_296" data-name="Rectangle 296" width="18.515" height="18.515" rx="5.92" transform="translate(166.525 87.192)" fill="#3f4d79" stroke="#fff" stroke-miterlimit="10" stroke-width="2"/>
            <path id="Path_830" data-name="Path 830" d="M707.725,617.515V605.834a3.419,3.419,0,0,0-3.419-3.414H692.63Z" transform="translate(-522.686 -515.228)" fill="#fff" opacity="0.2"/>
          </g>
          <g id="HEAD" transform="translate(100.121)">
            <path id="NECK" d="M719.172,138.43s8.1,15.94,0,30.792c-2.685,4.918,61.086,2.089,61.086,2.089l-8.175-32.881Z" transform="translate(-700.866 -59.199)" fill="#c36f0b"/>
            <path id="HEAD-2" data-name="HEAD" d="M764.445,48.645c.972,8.43,1.643,28.246,11.138,49.654S747.3,119.191,737.53,116.478a34.347,34.347,0,0,1-16.119-10.594s-19.8-5.207-19.793-13.307c0-6.266,10.044-3.246,10.044-3.246s-5.572-42.028,4.472-44.2S763.328,38.913,764.445,48.645Z" transform="translate(-687.598 -18.738)" fill="#c36f0b"/>
            <g id="HAIR" transform="translate(0)">
              <path id="Path_831" data-name="Path 831" d="M730.442,73.776c3.472,1.6,12.006-7.7,7.585-17.936-5.288-12.214-6.908-22.64,2.482-24.694s18.515,8.956,37.776,3.529,16.333-29.571-.22-31.469-18.723,10.571-21.407,10.843-20.922-7.88-31.11,2.7c-8.459,8.789-5.462,14.146-7.77,14.69s-10.241,3.772-9.7,12.185,13.961,29.062,13.961,29.062S725.159,71.335,730.442,73.776Z" transform="translate(-705.852 -2.131)" fill="#722d54"/>
              <path id="Path_832" data-name="Path 832" d="M697.624,29.43c9.668,1.938,19.053,11.7,38.319,6.272s16.339-32.314-.214-34.211" transform="translate(-657.483 -1.49)" fill="none" stroke="#722d54" stroke-miterlimit="10" stroke-width="3"/>
              <path id="Path_833" data-name="Path 833" d="M845.252,51.224C843.105,50.211,834.89,47.8,830.07,54.7" transform="translate(-830.07 -21.925)" fill="none" stroke="#722d54" stroke-miterlimit="10" stroke-width="3"/>
              <path id="Path_834" data-name="Path 834" d="M690.459,113.285c3.119,3.257,10.414,14.771,11.78,27.066s9.489,22.113,30.086,21.3,32.059-6.515,33.141-13.307-8.974-24.485-8.974-24.485-7.614-12.914-18.74-10.414S724.445,134.23,717.4,134.149c-13.2-.156-19.458-24.769-19.458-24.769Z" transform="translate(-669.59 -46.957)" fill="#722d54"/>
            </g>
            <g id="HEADPHONES" transform="translate(7.493 3.495)">
              <path id="Path_835" data-name="Path 835" d="M769.69,75.5V14.334a6.8,6.8,0,0,1,6.8-6.8h19.3a6.8,6.8,0,0,1,6.8,6.8" transform="translate(-759.97 -7.53)" fill="none" stroke="#d8baa3" stroke-linecap="round" stroke-miterlimit="10" stroke-width="5"/>
              <path id="Path_836" data-name="Path 836" d="M734.55,136.09v8.679a8.968,8.968,0,0,0,8.968,8.968h43.457" transform="translate(-724.02 -61.708)" fill="none" stroke="#d8baa3" stroke-linecap="round" stroke-miterlimit="10" stroke-width="5"/>
              <ellipse id="Ellipse_144" data-name="Ellipse 144" cx="10.461" cy="8.789" rx="10.461" ry="8.789" transform="translate(3.809 84.618) rotate(-100.49)" fill="#fff" stroke="#d8baa3" stroke-linecap="round" stroke-miterlimit="10" stroke-width="5"/>
              <ellipse id="Ellipse_145" data-name="Ellipse 145" cx="3.998" cy="4.762" rx="3.998" ry="4.762" transform="translate(58.679 96.76) rotate(-100.49)" fill="#fff"/>
            </g>
          </g>
        </g>
        <g id="COMPUTER" transform="translate(199.834 108.871)">
          <path id="Path_837" data-name="Path 837" d="M9.463,385.7H296.53c3.541,0,6.434-3.176,6.434-7.1l33.558-181.841c0-3.923-2.893-7.1-6.445-7.1H43c-3.558,0-6.445,3.176-6.445,7.1L3,378.6C3.012,382.523,5.9,385.7,9.463,385.7Z" transform="translate(87.657 -189.66)" fill="#fff" stroke="#d8baa3" stroke-miterlimit="10" stroke-width="6"/>
          <path id="Path_838" data-name="Path 838" d="M11.127,391.2H291.6c3.425,0,6.2-3.055,6.2-6.827l32.256-174.829c0-3.772-2.777-6.827-6.2-6.827H43.382c-3.425,0-6.2,3.055-6.2,6.827L4.93,384.376C4.93,388.149,7.707,391.2,11.127,391.2Z" transform="translate(93.006 -195.164)" fill="#fff" stroke="#d8baa3" stroke-miterlimit="10" stroke-width="6"/>
          <path id="Path_839" data-name="Path 839" d="M335.9,424.23l-15.5,58.645h15.5Z" transform="translate(-95.362 -288.513)" fill="#f0e1d4"/>
          <path id="Path_840" data-name="Path 840" d="M122.81,542.685v6.972l100.771-24.491,100.783,24.491v-6.972l-90.229-29.241V427.12H211.72v86.752Z" transform="translate(30.496 -289.731)" fill="#fff" stroke="#d8baa3" stroke-miterlimit="10" stroke-width="6"/>
          <path id="Path_841" data-name="Path 841" d="M476.856,639.87H131.925a11.051,11.051,0,0,0-11.045,11.068v2.893a11.045,11.045,0,0,0,11.045,11.045H476.683Z" transform="translate(-120.88 -379.388)" fill="#fff"/>
          <path id="Path_842" data-name="Path 842" d="M476.856,639.87H131.925a11.051,11.051,0,0,0-11.045,11.068v2.893a11.045,11.045,0,0,0,11.045,11.045H476.683" transform="translate(-120.88 -379.388)" fill="none" stroke="#d8baa3" stroke-miterlimit="10" stroke-width="6"/>
          <path id="Path_843" data-name="Path 843" d="M592.343,1070.94V683.83H568.28v387.081Z" transform="translate(-495.223 -397.914)" fill="#fff"/>
          <path id="Path_844" data-name="Path 844" d="M592.343,691.508V683.83H568.28v26.684Z" transform="translate(-495.223 -397.914)" fill="#f0e1d4"/>
          <path id="Path_845" data-name="Path 845" d="M592.343,1070.94V683.83H568.28v387.237" transform="translate(-495.223 -397.914)" fill="none" stroke="#d8baa3" stroke-miterlimit="10" stroke-width="6"/>
        </g>
      </g>
    </g>
  </g>
</svg>
